^C:\USERS\DENIS\SOURCE\REPOS\PLAYRIX\PLAYRIX\DEBUG\CARD.OBJ|C:\USERS\DENIS\SOURCE\REPOS\PLAYRIX\PLAYRIX\DEBUG\CONTROLLER.OBJ|C:\USERS\DENIS\SOURCE\REPOS\PLAYRIX\PLAYRIX\DEBUG\MODEL.OBJ|C:\USERS\DENIS\SOURCE\REPOS\PLAYRIX\PLAYRIX\DEBUG\PLAYER.OBJ|C:\USERS\DENIS\SOURCE\REPOS\PLAYRIX\PLAYRIX\DEBUG\PLAYRIX.OBJ|C:\USERS\DENIS\SOURCE\REPOS\PLAYRIX\PLAYRIX\DEBUG\TABLE.OBJ|C:\USERS\DENIS\SOURCE\REPOS\PLAYRIX\PLAYRIX\DEBUG\VIEW.OBJ
/OUT:"C:\USERS\DENIS\SOURCE\REPOS\PLAYRIX\DEBUG\PLAYRIX.EXE" /INCREMENTAL /NOLOGO KERNEL32.LIB USER32.LIB GDI32.LIB WINSPOOL.LIB COMDLG32.LIB ADVAPI32.LIB SHELL32.LIB OLE32.LIB OLEAUT32.LIB UUID.LIB ODBC32.LIB ODBCCP32.LIB /MANIFEST /MANIFESTUAC:"level='asInvoker' uiAccess='false'" /manifest:embed /DEBUG:FASTLINK /PDB:"C:\USERS\DENIS\SOURCE\REPOS\PLAYRIX\DEBUG\PLAYRIX.PDB" /SUBSYSTEM:CONSOLE /TLBID:1 /DYNAMICBASE /NXCOMPAT /IMPLIB:"C:\USERS\DENIS\SOURCE\REPOS\PLAYRIX\DEBUG\PLAYRIX.LIB" /MACHINE:X86 DEBUG\CARD.OBJ
DEBUG\CONTROLLER.OBJ
DEBUG\MODEL.OBJ
DEBUG\PLAYER.OBJ
DEBUG\PLAYRIX.OBJ
DEBUG\TABLE.OBJ
DEBUG\VIEW.OBJ
