^C:\GAMEPIRES\PLAYRIX\X64\DEBUG\BACKGROUND.OBJ|C:\GAMEPIRES\PLAYRIX\X64\DEBUG\BALL.OBJ|C:\GAMEPIRES\PLAYRIX\X64\DEBUG\BRICK.OBJ|C:\GAMEPIRES\PLAYRIX\X64\DEBUG\BUTTON.OBJ|C:\GAMEPIRES\PLAYRIX\X64\DEBUG\CARDANIMATIONEVENT.OBJ|C:\GAMEPIRES\PLAYRIX\X64\DEBUG\CHANGESTATEEVENT.OBJ|C:\GAMEPIRES\PLAYRIX\X64\DEBUG\COLLISIONABLE.OBJ|C:\GAMEPIRES\PLAYRIX\X64\DEBUG\CONFIGURATION.OBJ|C:\GAMEPIRES\PLAYRIX\X64\DEBUG\CONTROLLER.OBJ|C:\GAMEPIRES\PLAYRIX\X64\DEBUG\DRAWABLE.OBJ|C:\GAMEPIRES\PLAYRIX\X64\DEBUG\EVENT.OBJ|C:\GAMEPIRES\PLAYRIX\X64\DEBUG\EVENTMANAGER.OBJ|C:\GAMEPIRES\PLAYRIX\X64\DEBUG\GAMESCENE.OBJ|C:\GAMEPIRES\PLAYRIX\X64\DEBUG\GAMESTATE.OBJ|C:\GAMEPIRES\PLAYRIX\X64\DEBUG\KEYBOARDEVENT.OBJ|C:\GAMEPIRES\PLAYRIX\X64\DEBUG\MAINMENU.OBJ|C:\GAMEPIRES\PLAYRIX\X64\DEBUG\MAINMENUSTATE.OBJ|C:\GAMEPIRES\PLAYRIX\X64\DEBUG\MODEL.OBJ|C:\GAMEPIRES\PLAYRIX\X64\DEBUG\MOUSEEVENT.OBJ|C:\GAMEPIRES\PLAYRIX\X64\DEBUG\PLAYER.OBJ|C:\GAMEPIRES\PLAYRIX\X64\DEBUG\PLAYRIX.OBJ|C:\GAMEPIRES\PLAYRIX\X64\DEBUG\RENDERER.OBJ|C:\GAMEPIRES\PLAYRIX\X64\DEBUG\SOUND.OBJ|C:\GAMEPIRES\PLAYRIX\X64\DEBUG\SOUNDMANAGER.OBJ|C:\GAMEPIRES\PLAYRIX\X64\DEBUG\STATE.OBJ|C:\GAMEPIRES\PLAYRIX\X64\DEBUG\TEXT.OBJ|C:\GAMEPIRES\PLAYRIX\X64\DEBUG\TEXTURE.OBJ|C:\GAMEPIRES\PLAYRIX\X64\DEBUG\TEXTUREMANAGER.OBJ|C:\GAMEPIRES\PLAYRIX\X64\DEBUG\TIMER.OBJ|C:\GAMEPIRES\PLAYRIX\X64\DEBUG\TINYSTR.OBJ|C:\GAMEPIRES\PLAYRIX\X64\DEBUG\TINYXML.OBJ|C:\GAMEPIRES\PLAYRIX\X64\DEBUG\TINYXMLERROR.OBJ|C:\GAMEPIRES\PLAYRIX\X64\DEBUG\TINYXMLPARSER.OBJ|C:\GAMEPIRES\PLAYRIX\X64\DEBUG\UPDATABLE.OBJ|C:\GAMEPIRES\PLAYRIX\X64\DEBUG\VICTORYMENU.OBJ|C:\GAMEPIRES\PLAYRIX\X64\DEBUG\VICTORYSTATE.OBJ|C:\GAMEPIRES\PLAYRIX\X64\DEBUG\VIEW.OBJ|C:\GAMEPIRES\PLAYRIX\X64\DEBUG\WALL.OBJ|C:\GAMEPIRES\PLAYRIX\X64\DEBUG\WINDOW.OBJ|C:\GAMEPIRES\PLAYRIX\X64\DEBUG\XMLPARSER.OBJ
/OUT:"C:\GAMEPIRES\X64\DEBUG\PLAYRIX.EXE" /INCREMENTAL /NOLOGO SDL2.LIB SDL2MAIN.LIB SDL2_IMAGE.LIB SDL2_MIXER.LIB SDL2_TTF.LIB KERNEL32.LIB USER32.LIB GDI32.LIB WINSPOOL.LIB COMDLG32.LIB ADVAPI32.LIB SHELL32.LIB OLE32.LIB OLEAUT32.LIB UUID.LIB ODBC32.LIB ODBCCP32.LIB /MANIFEST /MANIFESTUAC:"level='asInvoker' uiAccess='false'" /manifest:embed /DEBUG:FASTLINK /PDB:"C:\GAMEPIRES\X64\DEBUG\PLAYRIX.PDB" /SUBSYSTEM:CONSOLE /TLBID:1 /DYNAMICBASE /NXCOMPAT /IMPLIB:"C:\GAMEPIRES\X64\DEBUG\PLAYRIX.LIB" /MACHINE:X64 X64\DEBUG\CONFIGURATION.OBJ
X64\DEBUG\CONTROLLER.OBJ
X64\DEBUG\GAMESTATE.OBJ
X64\DEBUG\MAINMENUSTATE.OBJ
X64\DEBUG\STATE.OBJ
X64\DEBUG\VICTORYSTATE.OBJ
X64\DEBUG\COLLISIONABLE.OBJ
X64\DEBUG\DRAWABLE.OBJ
X64\DEBUG\BACKGROUND.OBJ
X64\DEBUG\BALL.OBJ
X64\DEBUG\BRICK.OBJ
X64\DEBUG\BUTTON.OBJ
X64\DEBUG\PLAYER.OBJ
X64\DEBUG\TEXT.OBJ
X64\DEBUG\WALL.OBJ
X64\DEBUG\MODEL.OBJ
X64\DEBUG\GAMESCENE.OBJ
X64\DEBUG\MAINMENU.OBJ
X64\DEBUG\VICTORYMENU.OBJ
X64\DEBUG\SOUND.OBJ
X64\DEBUG\SOUNDMANAGER.OBJ
X64\DEBUG\TEXTURE.OBJ
X64\DEBUG\TEXTUREMANAGER.OBJ
X64\DEBUG\UPDATABLE.OBJ
X64\DEBUG\XMLPARSER.OBJ
X64\DEBUG\PLAYRIX.OBJ
X64\DEBUG\TIMER.OBJ
X64\DEBUG\TINYSTR.OBJ
X64\DEBUG\TINYXML.OBJ
X64\DEBUG\TINYXMLERROR.OBJ
X64\DEBUG\TINYXMLPARSER.OBJ
X64\DEBUG\CARDANIMATIONEVENT.OBJ
X64\DEBUG\CHANGESTATEEVENT.OBJ
X64\DEBUG\EVENT.OBJ
X64\DEBUG\EVENTMANAGER.OBJ
X64\DEBUG\KEYBOARDEVENT.OBJ
X64\DEBUG\MOUSEEVENT.OBJ
X64\DEBUG\RENDERER.OBJ
X64\DEBUG\VIEW.OBJ
X64\DEBUG\WINDOW.OBJ
