^C:\GAMEPIRES\PLAYRIX\X64\DEBUG\BACKGROUND.OBJ|C:\GAMEPIRES\PLAYRIX\X64\DEBUG\BALL.OBJ|C:\GAMEPIRES\PLAYRIX\X64\DEBUG\BRICK.OBJ|C:\GAMEPIRES\PLAYRIX\X64\DEBUG\BUTTON.OBJ|C:\GAMEPIRES\PLAYRIX\X64\DEBUG\CARDANIMATIONEVENT.OBJ|C:\GAMEPIRES\PLAYRIX\X64\DEBUG\CHANGESTATEEVENT.OBJ|C:\GAMEPIRES\PLAYRIX\X64\DEBUG\COLLISIONABLE.OBJ|C:\GAMEPIRES\PLAYRIX\X64\DEBUG\CONFIGURATION.OBJ|C:\GAMEPIRES\PLAYRIX\X64\DEBUG\CONTROLLER.OBJ|C:\GAMEPIRES\PLAYRIX\X64\DEBUG\DRAWABLE.OBJ|C:\GAMEPIRES\PLAYRIX\X64\DEBUG\EVENT.OBJ|C:\GAMEPIRES\PLAYRIX\X64\DEBUG\EVENTMANAGER.OBJ|C:\GAMEPIRES\PLAYRIX\X64\DEBUG\GAMESCENE.OBJ|C:\GAMEPIRES\PLAYRIX\X64\DEBUG\GAMESTATE.OBJ|C:\GAMEPIRES\PLAYRIX\X64\DEBUG\KEYBOARDEVENT.OBJ|C:\GAMEPIRES\PLAYRIX\X64\DEBUG\MAINMENU.OBJ|C:\GAMEPIRES\PLAYRIX\X64\DEBUG\MAINMENUSTATE.OBJ|C:\GAMEPIRES\PLAYRIX\X64\DEBUG\MODEL.OBJ|C:\GAMEPIRES\PLAYRIX\X64\DEBUG\MOUSEEVENT.OBJ|C:\GAMEPIRES\PLAYRIX\X64\DEBUG\PLAYER.OBJ|C:\GAMEPIRES\PLAYRIX\X64\DEBUG\PLAYRIX.OBJ|C:\GAMEPIRES\PLAYRIX\X64\DEBUG\RENDERER.OBJ|C:\GAMEPIRES\PLAYRIX\X64\DEBUG\SOUND.OBJ|C:\GAMEPIRES\PLAYRIX\X64\DEBUG\SOUNDMANAGER.OBJ|C:\GAMEPIRES\PLAYRIX\X64\DEBUG\STATE.OBJ|C:\GAMEPIRES\PLAYRIX\X64\DEBUG\TEXT.OBJ|C:\GAMEPIRES\PLAYRIX\X64\DEBUG\TEXTURE.OBJ|C:\GAMEPIRES\PLAYRIX\X64\DEBUG\TEXTUREMANAGER.OBJ|C:\GAMEPIRES\PLAYRIX\X64\DEBUG\TIMER.OBJ|C:\GAMEPIRES\PLAYRIX\X64\DEBUG\TINYSTR.OBJ|C:\GAMEPIRES\PLAYRIX\X64\DEBUG\TINYXML.OBJ|C:\GAMEPIRES\PLAYRIX\X64\DEBUG\TINYXMLERROR.OBJ|C:\GAMEPIRES\PLAYRIX\X64\DEBUG\TINYXMLPARSER.OBJ|C:\GAMEPIRES\PLAYRIX\X64\DEBUG\UPDATABLE.OBJ|C:\GAMEPIRES\PLAYRIX\X64\DEBUG\VICTORYMENU.OBJ|C:\GAMEPIRES\PLAYRIX\X64\DEBUG\VICTORYSTATE.OBJ|C:\GAMEPIRES\PLAYRIX\X64\DEBUG\VIEW.OBJ|C:\GAMEPIRES\PLAYRIX\X64\DEBUG\WALL.OBJ|C:\GAMEPIRES\PLAYRIX\X64\DEBUG\WINDOW.OBJ|C:\GAMEPIRES\PLAYRIX\X64\DEBUG\XMLPARSER.OBJ
C:\GAMEPIRES\PLAYRIX\SDL2.LIB
C:\GAMEPIRES\PLAYRIX\SDL2MAIN.LIB
C:\GAMEPIRES\PLAYRIX\SDL2_IMAGE.LIB
C:\GAMEPIRES\PLAYRIX\SDL2_MIXER.LIB
C:\GAMEPIRES\PLAYRIX\SDL2_TTF.LIB
C:\PROGRAM FILES (X86)\WINDOWS KITS\10\LIB\10.0.18362.0\UM\X64\KERNEL32.LIB
C:\PROGRAM FILES (X86)\WINDOWS KITS\10\LIB\10.0.18362.0\UM\X64\USER32.LIB
C:\PROGRAM FILES (X86)\WINDOWS KITS\10\LIB\10.0.18362.0\UM\X64\GDI32.LIB
C:\PROGRAM FILES (X86)\WINDOWS KITS\10\LIB\10.0.18362.0\UM\X64\WINSPOOL.LIB
C:\PROGRAM FILES (X86)\WINDOWS KITS\10\LIB\10.0.18362.0\UM\X64\COMDLG32.LIB
C:\PROGRAM FILES (X86)\WINDOWS KITS\10\LIB\10.0.18362.0\UM\X64\ADVAPI32.LIB
C:\PROGRAM FILES (X86)\WINDOWS KITS\10\LIB\10.0.18362.0\UM\X64\SHELL32.LIB
C:\PROGRAM FILES (X86)\WINDOWS KITS\10\LIB\10.0.18362.0\UM\X64\OLE32.LIB
C:\PROGRAM FILES (X86)\WINDOWS KITS\10\LIB\10.0.18362.0\UM\X64\OLEAUT32.LIB
C:\PROGRAM FILES (X86)\WINDOWS KITS\10\LIB\10.0.18362.0\UM\X64\UUID.LIB
C:\PROGRAM FILES (X86)\WINDOWS KITS\10\LIB\10.0.18362.0\UM\X64\ODBC32.LIB
C:\PROGRAM FILES (X86)\WINDOWS KITS\10\LIB\10.0.18362.0\UM\X64\ODBCCP32.LIB
C:\GAMEPIRES\PLAYRIX\X64\DEBUG\CONFIGURATION.OBJ
C:\GAMEPIRES\PLAYRIX\X64\DEBUG\CONTROLLER.OBJ
C:\GAMEPIRES\PLAYRIX\X64\DEBUG\GAMESTATE.OBJ
C:\GAMEPIRES\PLAYRIX\X64\DEBUG\MAINMENUSTATE.OBJ
C:\GAMEPIRES\PLAYRIX\X64\DEBUG\STATE.OBJ
C:\GAMEPIRES\PLAYRIX\X64\DEBUG\VICTORYSTATE.OBJ
C:\GAMEPIRES\PLAYRIX\X64\DEBUG\COLLISIONABLE.OBJ
C:\GAMEPIRES\PLAYRIX\X64\DEBUG\DRAWABLE.OBJ
C:\GAMEPIRES\PLAYRIX\X64\DEBUG\BACKGROUND.OBJ
C:\GAMEPIRES\PLAYRIX\X64\DEBUG\BALL.OBJ
C:\GAMEPIRES\PLAYRIX\X64\DEBUG\BRICK.OBJ
C:\GAMEPIRES\PLAYRIX\X64\DEBUG\BUTTON.OBJ
C:\GAMEPIRES\PLAYRIX\X64\DEBUG\PLAYER.OBJ
C:\GAMEPIRES\PLAYRIX\X64\DEBUG\TEXT.OBJ
C:\GAMEPIRES\PLAYRIX\X64\DEBUG\WALL.OBJ
C:\GAMEPIRES\PLAYRIX\X64\DEBUG\MODEL.OBJ
C:\GAMEPIRES\PLAYRIX\X64\DEBUG\GAMESCENE.OBJ
C:\GAMEPIRES\PLAYRIX\X64\DEBUG\MAINMENU.OBJ
C:\GAMEPIRES\PLAYRIX\X64\DEBUG\VICTORYMENU.OBJ
C:\GAMEPIRES\PLAYRIX\X64\DEBUG\SOUND.OBJ
C:\GAMEPIRES\PLAYRIX\X64\DEBUG\SOUNDMANAGER.OBJ
C:\GAMEPIRES\PLAYRIX\X64\DEBUG\TEXTURE.OBJ
C:\GAMEPIRES\PLAYRIX\X64\DEBUG\TEXTUREMANAGER.OBJ
C:\GAMEPIRES\PLAYRIX\X64\DEBUG\UPDATABLE.OBJ
C:\GAMEPIRES\PLAYRIX\X64\DEBUG\XMLPARSER.OBJ
C:\GAMEPIRES\PLAYRIX\X64\DEBUG\PLAYRIX.OBJ
C:\GAMEPIRES\PLAYRIX\X64\DEBUG\TIMER.OBJ
C:\GAMEPIRES\PLAYRIX\X64\DEBUG\TINYSTR.OBJ
C:\GAMEPIRES\PLAYRIX\X64\DEBUG\TINYXML.OBJ
C:\GAMEPIRES\PLAYRIX\X64\DEBUG\TINYXMLERROR.OBJ
C:\GAMEPIRES\PLAYRIX\X64\DEBUG\TINYXMLPARSER.OBJ
C:\GAMEPIRES\PLAYRIX\X64\DEBUG\CARDANIMATIONEVENT.OBJ
C:\GAMEPIRES\PLAYRIX\X64\DEBUG\CHANGESTATEEVENT.OBJ
C:\GAMEPIRES\PLAYRIX\X64\DEBUG\EVENT.OBJ
C:\GAMEPIRES\PLAYRIX\X64\DEBUG\EVENTMANAGER.OBJ
C:\GAMEPIRES\PLAYRIX\X64\DEBUG\KEYBOARDEVENT.OBJ
C:\GAMEPIRES\PLAYRIX\X64\DEBUG\MOUSEEVENT.OBJ
C:\GAMEPIRES\PLAYRIX\X64\DEBUG\RENDERER.OBJ
C:\GAMEPIRES\PLAYRIX\X64\DEBUG\VIEW.OBJ
C:\GAMEPIRES\PLAYRIX\X64\DEBUG\WINDOW.OBJ
C:\WINDOWS\SYSTEM32\TZRES.DLL
C:\WINDOWS\GLOBALIZATION\SORTING\SORTDEFAULT.NLS
C:\PROGRAM FILES (X86)\MICROSOFT VISUAL STUDIO\2019\COMMUNITY\VC\TOOLS\MSVC\14.27.29110\LIB\X64\MSVCPRTD.LIB
C:\PROGRAM FILES (X86)\MICROSOFT VISUAL STUDIO\2019\COMMUNITY\VC\TOOLS\MSVC\14.27.29110\LIB\X64\MSVCRTD.LIB
C:\PROGRAM FILES (X86)\MICROSOFT VISUAL STUDIO\2019\COMMUNITY\VC\TOOLS\MSVC\14.27.29110\LIB\X64\OLDNAMES.LIB
C:\PROGRAM FILES (X86)\MICROSOFT VISUAL STUDIO\2019\COMMUNITY\VC\TOOLS\MSVC\14.27.29110\LIB\X64\VCRUNTIMED.LIB
C:\PROGRAM FILES (X86)\WINDOWS KITS\10\LIB\10.0.18362.0\UCRT\X64\UCRTD.LIB
C:\PROGRAM FILES (X86)\MICROSOFT VISUAL STUDIO\2019\COMMUNITY\VC\TOOLS\MSVC\14.27.29110\BIN\HOSTX86\X64\MSPDBSRV.EXE
