#Command: "C:\Program Files (x86)\Microsoft Visual Studio\2019\Community\VC\Tools\Llvm\x64\bin\clang-cl.exe" -cc1 -triple x86_64-pc-windows-msvc19.27.29111 -emit-obj -mrelax-all -mincremental-linker-compatible -disable-free -disable-llvm-verifier -discard-value-names -main-file-name Model.cpp -mrelocation-model pic -pic-level 2 -mthread-model posix -mframe-pointer=none -relaxed-aliasing -fmath-errno -fno-rounding-math -masm-verbose -mconstructor-aliases -munwind-tables -target-cpu x86-64 -mllvm -x86-asm-syntax=intel -D_DEBUG -D_MT -D_DLL --dependent-lib=msvcrtd --dependent-lib=oldnames -stack-protector 2 -fcxx-exceptions -fexceptions -fexternc-nounwind -fms-volatile -fdefault-calling-conv=cdecl -fdiagnostics-format msvc -gcodeview -debug-info-kind=limited -resource-dir "C:\Program Files (x86)\Microsoft Visual Studio\2019\Community\VC\Tools\Llvm\x64\lib\clang\10.0.0" -D _DEBUG -D _CONSOLE -D _UNICODE -D UNICODE -internal-isystem "C:\Program Files (x86)\Microsoft Visual Studio\2019\Community\VC\Tools\Llvm\x64\lib\clang\10.0.0\include" -internal-isystem "C:\Users\denis\source\repos\ra\Racunalna Grafika 1. labos\glm" -internal-isystem "D:\vcclibs\SDL2_ttf-2.0.15\include" -internal-isystem "D:\vcclibs\SDL2_mixer-2.0.4\include" -internal-isystem "D:\vcclibs\SDL2_image-2.0.5\include" -internal-isystem "D:\vcclibs\SDL2-2.0.14\include" -internal-isystem "C:\Program Files (x86)\Microsoft Visual Studio\2019\Community\VC\Tools\Llvm\x64\x64\lib\clang\10.0.0\include" -internal-isystem "C:\Program Files (x86)\Microsoft Visual Studio\2019\Community\VC\Tools\MSVC\14.27.29110\include" -internal-isystem "C:\Program Files (x86)\Microsoft Visual Studio\2019\Community\VC\Tools\MSVC\14.27.29110\atlmfc\include" -internal-isystem "C:\Program Files (x86)\Microsoft Visual Studio\2019\Community\VC\Auxiliary\VS\include" -internal-isystem "C:\Program Files (x86)\Windows Kits\10\Include\10.0.18362.0\ucrt" -internal-isystem "C:\Program Files (x86)\Windows Kits\10\Include\10.0.18362.0\um" -internal-isystem "C:\Program Files (x86)\Windows Kits\10\Include\10.0.18362.0\shared" -internal-isystem "C:\Program Files (x86)\Windows Kits\10\Include\10.0.18362.0\winrt" -internal-isystem "C:\Program Files (x86)\Windows Kits\10\Include\10.0.18362.0\cppwinrt" -internal-isystem "C:\Program Files (x86)\Windows Kits\NETFXSDK\4.8\Include\um" -O0 -Wall -Wno-error -fdeprecated-macro -fdebug-compilation-dir "C:\GamePires\BrakeOutGame" -ferror-limit 19 -fmessage-length 0 -fno-use-cxa-atexit -fms-extensions -fms-compatibility -fms-compatibility-version=19.27.29111 -std=c++17 -fdelayed-template-parsing -fobjc-runtime=gcc -fno-caret-diagnostics -fdiagnostics-show-option -faddrsig -o "x64\Debug\Model.obj" -x c++ "Model\Model.cpp" 
^C:\GAMEPIRES\BRAKEOUTGAME\BREAKEOUT.CPP|C:\GAMEPIRES\BRAKEOUTGAME\CONFIGURATION.CPP|C:\GAMEPIRES\BRAKEOUTGAME\CONTROLLER\CONTROLLER.CPP|C:\GAMEPIRES\BRAKEOUTGAME\CONTROLLER\STATES\GAMESTATE.CPP|C:\GAMEPIRES\BRAKEOUTGAME\CONTROLLER\STATES\MAINMENUSTATE.CPP|C:\GAMEPIRES\BRAKEOUTGAME\CONTROLLER\STATES\STATE.CPP|C:\GAMEPIRES\BRAKEOUTGAME\CONTROLLER\STATES\VICTORYSTATE.CPP|C:\GAMEPIRES\BRAKEOUTGAME\MODEL\COLLISIONABLE.CPP|C:\GAMEPIRES\BRAKEOUTGAME\MODEL\DRAWABLE.CPP|C:\GAMEPIRES\BRAKEOUTGAME\MODEL\ELEMENTS\BACKGROUND.CPP|C:\GAMEPIRES\BRAKEOUTGAME\MODEL\ELEMENTS\BALL.CPP|C:\GAMEPIRES\BRAKEOUTGAME\MODEL\ELEMENTS\BRICK.CPP|C:\GAMEPIRES\BRAKEOUTGAME\MODEL\ELEMENTS\BUTTON.CPP|C:\GAMEPIRES\BRAKEOUTGAME\MODEL\ELEMENTS\EDGE.CPP|C:\GAMEPIRES\BRAKEOUTGAME\MODEL\ELEMENTS\PLAYER.CPP|C:\GAMEPIRES\BRAKEOUTGAME\MODEL\ELEMENTS\TEXT.CPP|C:\GAMEPIRES\BRAKEOUTGAME\MODEL\ELEMENTS\WALL.CPP|C:\GAMEPIRES\BRAKEOUTGAME\MODEL\MODEL.CPP|C:\GAMEPIRES\BRAKEOUTGAME\MODEL\SCENES\GAMESCENE.CPP|C:\GAMEPIRES\BRAKEOUTGAME\MODEL\SCENES\MAINMENU.CPP|C:\GAMEPIRES\BRAKEOUTGAME\MODEL\SCENES\VICTORYMENU.CPP|C:\GAMEPIRES\BRAKEOUTGAME\MODEL\SOUND\SOUND.CPP|C:\GAMEPIRES\BRAKEOUTGAME\MODEL\SOUND\SOUNDMANAGER.CPP|C:\GAMEPIRES\BRAKEOUTGAME\MODEL\TEXTURE\TEXTURE.CPP|C:\GAMEPIRES\BRAKEOUTGAME\MODEL\TEXTURE\TEXTUREMANAGER.CPP|C:\GAMEPIRES\BRAKEOUTGAME\MODEL\UPDATABLE.CPP|C:\GAMEPIRES\BRAKEOUTGAME\MODEL\XMLPARSER.CPP|C:\GAMEPIRES\BRAKEOUTGAME\TIMER.CPP|C:\GAMEPIRES\BRAKEOUTGAME\TINYSTR.CPP|C:\GAMEPIRES\BRAKEOUTGAME\TINYXML.CPP|C:\GAMEPIRES\BRAKEOUTGAME\TINYXMLERROR.CPP|C:\GAMEPIRES\BRAKEOUTGAME\TINYXMLPARSER.CPP|C:\GAMEPIRES\BRAKEOUTGAME\VIEW\EVENT\CARDANIMATIONEVENT.CPP|C:\GAMEPIRES\BRAKEOUTGAME\VIEW\EVENT\CHANGESTATEEVENT.CPP|C:\GAMEPIRES\BRAKEOUTGAME\VIEW\EVENT\EVENT.CPP|C:\GAMEPIRES\BRAKEOUTGAME\VIEW\EVENT\EVENTMANAGER.CPP|C:\GAMEPIRES\BRAKEOUTGAME\VIEW\EVENT\KEYBOARDEVENT.CPP|C:\GAMEPIRES\BRAKEOUTGAME\VIEW\EVENT\MOUSEEVENT.CPP|C:\GAMEPIRES\BRAKEOUTGAME\VIEW\EVENT\MOUSEMOTIONEVENT.CPP|C:\GAMEPIRES\BRAKEOUTGAME\VIEW\RENDERER.CPP|C:\GAMEPIRES\BRAKEOUTGAME\VIEW\VIEW.CPP|C:\GAMEPIRES\BRAKEOUTGAME\VIEW\WINDOW.CPP
\\?\C:\GAMEPIRES\BRAKEOUTGAME\X64\DEBUG\MODEL-07BA355D.OBJ.TMP
