#Command: "C:\Program Files (x86)\Microsoft Visual Studio\2019\Community\VC\Tools\Llvm\x64\bin\lld-link.exe" @C:\Users\denis\AppData\Local\Temp\tmp3432786b26d449b993bfef84a9b3014a.rsp
^C:\GAMEPIRES\BRAKEOUTGAME\X64\DEBUG\BACKGROUND.OBJ|C:\GAMEPIRES\BRAKEOUTGAME\X64\DEBUG\BALL.OBJ|C:\GAMEPIRES\BRAKEOUTGAME\X64\DEBUG\BREAKEOUT.OBJ|C:\GAMEPIRES\BRAKEOUTGAME\X64\DEBUG\BRICK.OBJ|C:\GAMEPIRES\BRAKEOUTGAME\X64\DEBUG\BUTTON.OBJ|C:\GAMEPIRES\BRAKEOUTGAME\X64\DEBUG\CARDANIMATIONEVENT.OBJ|C:\GAMEPIRES\BRAKEOUTGAME\X64\DEBUG\CHANGESTATEEVENT.OBJ|C:\GAMEPIRES\BRAKEOUTGAME\X64\DEBUG\COLLISIONABLE.OBJ|C:\GAMEPIRES\BRAKEOUTGAME\X64\DEBUG\CONFIGURATION.OBJ|C:\GAMEPIRES\BRAKEOUTGAME\X64\DEBUG\CONTROLLER.OBJ|C:\GAMEPIRES\BRAKEOUTGAME\X64\DEBUG\DRAWABLE.OBJ|C:\GAMEPIRES\BRAKEOUTGAME\X64\DEBUG\EDGE.OBJ|C:\GAMEPIRES\BRAKEOUTGAME\X64\DEBUG\EVENT.OBJ|C:\GAMEPIRES\BRAKEOUTGAME\X64\DEBUG\EVENTMANAGER.OBJ|C:\GAMEPIRES\BRAKEOUTGAME\X64\DEBUG\GAMESCENE.OBJ|C:\GAMEPIRES\BRAKEOUTGAME\X64\DEBUG\GAMESTATE.OBJ|C:\GAMEPIRES\BRAKEOUTGAME\X64\DEBUG\KEYBOARDEVENT.OBJ|C:\GAMEPIRES\BRAKEOUTGAME\X64\DEBUG\MAINMENU.OBJ|C:\GAMEPIRES\BRAKEOUTGAME\X64\DEBUG\MAINMENUSTATE.OBJ|C:\GAMEPIRES\BRAKEOUTGAME\X64\DEBUG\MODEL.OBJ|C:\GAMEPIRES\BRAKEOUTGAME\X64\DEBUG\MOUSEEVENT.OBJ|C:\GAMEPIRES\BRAKEOUTGAME\X64\DEBUG\MOUSEMOTIONEVENT.OBJ|C:\GAMEPIRES\BRAKEOUTGAME\X64\DEBUG\PLAYER.OBJ|C:\GAMEPIRES\BRAKEOUTGAME\X64\DEBUG\RENDERER.OBJ|C:\GAMEPIRES\BRAKEOUTGAME\X64\DEBUG\SOUND.OBJ|C:\GAMEPIRES\BRAKEOUTGAME\X64\DEBUG\SOUNDMANAGER.OBJ|C:\GAMEPIRES\BRAKEOUTGAME\X64\DEBUG\STATE.OBJ|C:\GAMEPIRES\BRAKEOUTGAME\X64\DEBUG\TEXT.OBJ|C:\GAMEPIRES\BRAKEOUTGAME\X64\DEBUG\TEXTURE.OBJ|C:\GAMEPIRES\BRAKEOUTGAME\X64\DEBUG\TEXTUREMANAGER.OBJ|C:\GAMEPIRES\BRAKEOUTGAME\X64\DEBUG\TIMER.OBJ|C:\GAMEPIRES\BRAKEOUTGAME\X64\DEBUG\TINYSTR.OBJ|C:\GAMEPIRES\BRAKEOUTGAME\X64\DEBUG\TINYXML.OBJ|C:\GAMEPIRES\BRAKEOUTGAME\X64\DEBUG\TINYXMLERROR.OBJ|C:\GAMEPIRES\BRAKEOUTGAME\X64\DEBUG\TINYXMLPARSER.OBJ|C:\GAMEPIRES\BRAKEOUTGAME\X64\DEBUG\UPDATABLE.OBJ|C:\GAMEPIRES\BRAKEOUTGAME\X64\DEBUG\VICTORYMENU.OBJ|C:\GAMEPIRES\BRAKEOUTGAME\X64\DEBUG\VICTORYSTATE.OBJ|C:\GAMEPIRES\BRAKEOUTGAME\X64\DEBUG\VIEW.OBJ|C:\GAMEPIRES\BRAKEOUTGAME\X64\DEBUG\WALL.OBJ|C:\GAMEPIRES\BRAKEOUTGAME\X64\DEBUG\WINDOW.OBJ|C:\GAMEPIRES\BRAKEOUTGAME\X64\DEBUG\XMLPARSER.OBJ
\\?\C:\GAMEPIRES\X64\DEBUG\BRAKEOUT.VCXPROJ.PDB.TMPC325BFD
\\?\C:\GAMEPIRES\X64\DEBUG\BRAKEOUT.VCXPROJ.EXE.TMPC85D54C
#Command: "C:\Program Files (x86)\Microsoft Visual Studio\2019\Community\VC\Tools\Llvm\x64\bin\lld-link.exe" @C:\Users\denis\AppData\Local\Temp\tmp03a4a689d8c14cf99e88cab7d2f7539c.rsp
^C:\GAMEPIRES\BRAKEOUTGAME\X64\DEBUG\BACKGROUND.OBJ|C:\GAMEPIRES\BRAKEOUTGAME\X64\DEBUG\BALL.OBJ|C:\GAMEPIRES\BRAKEOUTGAME\X64\DEBUG\BREAKEOUT.OBJ|C:\GAMEPIRES\BRAKEOUTGAME\X64\DEBUG\BRICK.OBJ|C:\GAMEPIRES\BRAKEOUTGAME\X64\DEBUG\BUTTON.OBJ|C:\GAMEPIRES\BRAKEOUTGAME\X64\DEBUG\CARDANIMATIONEVENT.OBJ|C:\GAMEPIRES\BRAKEOUTGAME\X64\DEBUG\CHANGESTATEEVENT.OBJ|C:\GAMEPIRES\BRAKEOUTGAME\X64\DEBUG\COLLISIONABLE.OBJ|C:\GAMEPIRES\BRAKEOUTGAME\X64\DEBUG\CONFIGURATION.OBJ|C:\GAMEPIRES\BRAKEOUTGAME\X64\DEBUG\CONTROLLER.OBJ|C:\GAMEPIRES\BRAKEOUTGAME\X64\DEBUG\DRAWABLE.OBJ|C:\GAMEPIRES\BRAKEOUTGAME\X64\DEBUG\EDGE.OBJ|C:\GAMEPIRES\BRAKEOUTGAME\X64\DEBUG\EVENT.OBJ|C:\GAMEPIRES\BRAKEOUTGAME\X64\DEBUG\EVENTMANAGER.OBJ|C:\GAMEPIRES\BRAKEOUTGAME\X64\DEBUG\GAMESCENE.OBJ|C:\GAMEPIRES\BRAKEOUTGAME\X64\DEBUG\GAMESTATE.OBJ|C:\GAMEPIRES\BRAKEOUTGAME\X64\DEBUG\KEYBOARDEVENT.OBJ|C:\GAMEPIRES\BRAKEOUTGAME\X64\DEBUG\MAINMENU.OBJ|C:\GAMEPIRES\BRAKEOUTGAME\X64\DEBUG\MAINMENUSTATE.OBJ|C:\GAMEPIRES\BRAKEOUTGAME\X64\DEBUG\MODEL.OBJ|C:\GAMEPIRES\BRAKEOUTGAME\X64\DEBUG\MOUSEEVENT.OBJ|C:\GAMEPIRES\BRAKEOUTGAME\X64\DEBUG\MOUSEMOTIONEVENT.OBJ|C:\GAMEPIRES\BRAKEOUTGAME\X64\DEBUG\PLAYER.OBJ|C:\GAMEPIRES\BRAKEOUTGAME\X64\DEBUG\RENDERER.OBJ|C:\GAMEPIRES\BRAKEOUTGAME\X64\DEBUG\SOUND.OBJ|C:\GAMEPIRES\BRAKEOUTGAME\X64\DEBUG\SOUNDMANAGER.OBJ|C:\GAMEPIRES\BRAKEOUTGAME\X64\DEBUG\STATE.OBJ|C:\GAMEPIRES\BRAKEOUTGAME\X64\DEBUG\TEXT.OBJ|C:\GAMEPIRES\BRAKEOUTGAME\X64\DEBUG\TEXTURE.OBJ|C:\GAMEPIRES\BRAKEOUTGAME\X64\DEBUG\TEXTUREMANAGER.OBJ|C:\GAMEPIRES\BRAKEOUTGAME\X64\DEBUG\TIMER.OBJ|C:\GAMEPIRES\BRAKEOUTGAME\X64\DEBUG\TINYSTR.OBJ|C:\GAMEPIRES\BRAKEOUTGAME\X64\DEBUG\TINYXML.OBJ|C:\GAMEPIRES\BRAKEOUTGAME\X64\DEBUG\TINYXMLERROR.OBJ|C:\GAMEPIRES\BRAKEOUTGAME\X64\DEBUG\TINYXMLPARSER.OBJ|C:\GAMEPIRES\BRAKEOUTGAME\X64\DEBUG\UPDATABLE.OBJ|C:\GAMEPIRES\BRAKEOUTGAME\X64\DEBUG\VICTORYMENU.OBJ|C:\GAMEPIRES\BRAKEOUTGAME\X64\DEBUG\VICTORYSTATE.OBJ|C:\GAMEPIRES\BRAKEOUTGAME\X64\DEBUG\VIEW.OBJ|C:\GAMEPIRES\BRAKEOUTGAME\X64\DEBUG\WALL.OBJ|C:\GAMEPIRES\BRAKEOUTGAME\X64\DEBUG\WINDOW.OBJ|C:\GAMEPIRES\BRAKEOUTGAME\X64\DEBUG\XMLPARSER.OBJ
\\?\C:\GAMEPIRES\X64\DEBUG\BRAKEOUT.VCXPROJ.PDB.TMPEEEE7C0
\\?\C:\GAMEPIRES\X64\DEBUG\BRAKEOUT.VCXPROJ.EXE.TMP2A0065B
